\relax 
\citation{Stamatatos2009}
\citation{Aggarwal2012}
\citation{Cilibrasi2005}
\citation{Stamatatos2009}
\citation{Mikolov2013}
\bibdata{bibfile.bib}
\bibcite{Aggarwal2012}{1}
\bibcite{Cilibrasi2005}{2}
\bibcite{Mikolov2013}{3}
\bibcite{Stamatatos2009}{4}
\bibstyle{plain}
\newlabel{tocindent-1}{0pt}
\newlabel{tocindent0}{13.9917pt}
\newlabel{tocindent1}{0pt}
\newlabel{tocindent2}{0pt}
\newlabel{tocindent3}{0pt}
\@writefile{toc}{\contentsline {section}{\tocsection {}{}{References}}{2}}
