\begin{thebibliography}{1}

\bibitem{Aggarwal2012}
Charu~C Aggarwal and Chengxiang Zhai.
\newblock {\em {A Survey of Text Clustering Algorithms}}.
\newblock Springer US, Boston, MA, 2012.

\bibitem{Cilibrasi2005}
R.~Cilibrasi and P.M.B. Vitanyi.
\newblock {Clustering by Compression}.
\newblock {\em IEEE Transactions on Information Theory}, 51(4):1523--1545,
  April 2005.

\bibitem{Mikolov2013}
Tomas Mikolov, Kai Chen, Greg Corrado, and Jeffrey Dean.
\newblock {Efficient Estimation of Word Representations in Vector Space}.
\newblock {\em arXiv preprint arXiv:1301.3781}, pages 1--12, 2013.

\bibitem{Stamatatos2009}
Efstathios Stamatatos.
\newblock {A Survey of Modern Authorship Attribution Methods}.
\newblock 60(3):538--556, 2009.

\end{thebibliography}
